{
  "users": {
  },
  "account": {
    "join": "Entrar",
    "user": "Usuario",
    "userName": "Nombre de usuraio",
    "email": "Correo",
    "password": "Contraseña",
    "confirmPassword": "Confirmar contraseña",
    "signInto": "Inicia sesión",
    "noAccount": "¿Todavía no tienes cuenta?",
    "rememberMe": "Recuerdame",
    "forgotPassword": "¿Olvidaste tu contraseña?",
    "forgotPasswordInto": "Ingrese su correo electrónico registrado para restablecer su contraseña",
    "resetYouPassword": "Restablecer contraseña",
    "accountAlready": "¿Ya tiene cuenta? Por favor vaya a",
    "phone": "Teléfono",
    "profile": "Perfil",
    "personalInformation": "Datos personales",
    "changePassword": "Cambiar contraseña",
    "currentPassword": "Contraseña actual",
    "userData": "Datos de usuario",
    "directoryContact": "Directorio de contacto",
    "permissionDenied": "Permiso denegado"
  },
  "error": {
    "authuser-disabled": "Usuario inhabilitado",
    "authinvalid-email": "Formato de correo invalido",
    "authuser-not-found": "Usuario no encontrado",
    "authwrong-password": "Contraseña incorrecta",
    "auth-email-already-in-use": "Este correo ya se encuentra usado en otra cuenta",
    "invalidPasswordUser": "Usuario o contraseña invalida",
    "fieldRequired": "Este campo es requerido",
    "passwordsMatch": "Las contraseñas deben coincidir",
    "userExist": "Usuario existente",
    "emailNotBelong": "El email no pertenece a la intranet",
    "invalidCredentials": "Usuario o contraseña invalido",
    "emailInvalidFormat": "Formato de email no es valido",
    "passwordDoesNotMatch":"La contraseña no coincide",
    "newPasswordRequired":"Contraseña actual es requerido",
    "confirmPasswordRequired":"Confirmar contraseña es requerido",
    "currentPasswordRequired": "Contraseña es requerida",
    "allFieldIsRequired": "Todos los campos son requeridos",
    "coverPhotoIsRequired": "Foto de portada es requerida",
    "gauth_immediate_failed": "La cuenta de correo no pertenece a la Intranet",
    "emailNotSaved": "No hay correos de colaboradores guardados. Comuníquese con el administrador.",
    "dayNotSaved": "No puede generar una cita para el día seleccionado. Pongase en contacto con el administrador y verifique los días disponibles.",
    "requestAlreadyUpdated": "La solicitud ya ha sido modificada anteriormente.",
    "requestNotExists": "La solicitud no existe o ha sido eliminada por el colaborador.",
    "dateInvalid": "Fecha inválida",
    "timeInvalid": "Hora inválida",
    "userInvalid": "Usuario inválido",
    "fieldsRequired": "Debe completar los campos obligatorios",
    "excelError": "Error cargando el archivo excel",
    "noChangeExists": "No hay cambios que generar",
    "userNotFound": "El usuario no pertenece a la intranet",
    "fileSizeExceeded": "Tamaño de archivo excedido",
    "fileExtensionFail": "Archivo inválido",
    "indicatorNotValid": "Datos del indicador inválidos"
  },
  "message": {
    "emailSentSuccess": "Te hemos enviado un enlace para reiniciar tu contraseña",
    "changePassword_success": "Contraseña cambiada exitosamente",
    "groupCreated" : "Grupo de contacto registrado",
    "grupUpdate" : "Grupo actualizado",
    "contactnew" : "Contacto agregado exitosamente",
    "contactupdate" : "Contacto actualizado",
    "grupdelect" : "Grupo eliminado exitosamente",
    "youCongratulated": "Has felicitado a {name}",
    "ballotsEliminated": "Directorio Eliminado Con Éxito",
    "ticketUpdated": "Ticket modificado con éxito",
    "ticketSaved": "Ticket guardado con éxito",
    "requestSaved": "Solicitud registrada con éxito",
    "requestUpdated": "Solicitud modificada con éxito",
    "requestDeleted": "Solicitud eliminada con éxito",
    "daySaved": "Días guardados con éxito",
    "excelSaved": "Archivo excel cargado con éxito",
    "suggestSaved": "Sugerencia guardada con éxito",
    "suggestDeleted": "Sugerencia eliminada con éxito",
    "zipLoadSuccessful": "Carga zip éxito",
    "emailSaved": "Email guardado con éxito",
    "notificationSend": "Notifiación enviada",
    "userUpdate": "Usuario actualizado con éxito",
    "albumSaved": "Album guardado con éxito",
    "albumDeleted": "Album eliminado con éxito",
    "galleryDeleted": "Imagen eliminada con éxito",
    "albumUpdated": "Album actualizado con éxito",
    "excelLoadSuccessful": "Data cargada con éxito",
    "indicatorLoaded": "Indicador cargado con éxito"
  },
  "action": {
    "save": "Guardar",
    "signIn": "Iniciar sesión",
    "signInGoogle": "Inicia con Google",
    "signUp": "Regístrate",
    "logOut": "Cerrar Sesión"
  },
  "view": {
    "home": "Inicio"
  },
  "date": "Fecha",
  "language": {
    "Text": "Lenguaje",
    "es": "Español",
    "en": "English"
  },
  "rightReserved": "Copyright © 2017. TODOS LOS DERECHOS RESERVADOS.",
  "author": "AUTOR Gabriel Aponte",
  "termsRegister": "Al hacer clic en Registrarse, acepta nuestras",
  "terms": "Condiciones",
  "importanceEnum": [
    { "value": 1, "text": "Alta" },
    { "value": 2, "text": "Media" },
    { "value": 3, "text": "Baja" }
  ]
}
